<?xml version="1.0" encoding="UTF-8" standalone="no"?>
<!-- Created with Inkscape (http://www.inkscape.org/) -->

<svg
   xmlns:dc="http://purl.org/dc/elements/1.1/"
   xmlns:cc="http://creativecommons.org/ns#"
   xmlns:rdf="http://www.w3.org/1999/02/22-rdf-syntax-ns#"
   xmlns:svg="http://www.w3.org/2000/svg"
   xmlns="http://www.w3.org/2000/svg"
   xmlns:xlink="http://www.w3.org/1999/xlink"
   xmlns:sodipodi="http://sodipodi.sourceforge.net/DTD/sodipodi-0.dtd"
   xmlns:inkscape="http://www.inkscape.org/namespaces/inkscape"
   width="744.09448819"
   height="1052.3622047"
   id="svg2"
   version="1.1"
   inkscape:version="0.48.4 r9939"
   sodipodi:docname="Bayer.svg">
  <defs
     id="defs4" />
  <sodipodi:namedview
     id="base"
     pagecolor="#ffffff"
     bordercolor="#666666"
     borderopacity="1.0"
     inkscape:pageopacity="0.0"
     inkscape:pageshadow="2"
     inkscape:zoom="8.6114583"
     inkscape:cx="59.70374"
     inkscape:cy="1015.4548"
     inkscape:document-units="px"
     inkscape:current-layer="layer1"
     showgrid="false"
     showguides="true"
     inkscape:guide-bbox="true"
     inkscape:window-width="1572"
     inkscape:window-height="1146"
     inkscape:window-x="28"
     inkscape:window-y="0"
     inkscape:window-maximized="1" />
  <metadata
     id="metadata7">
    <rdf:RDF>
      <cc:Work
         rdf:about="">
        <dc:format>image/svg+xml</dc:format>
        <dc:type
           rdf:resource="http://purl.org/dc/dcmitype/StillImage" />
        <dc:title></dc:title>
      </cc:Work>
    </rdf:RDF>
  </metadata>
  <g
     inkscape:label="Layer 1"
     inkscape:groupmode="layer"
     id="layer1">
    <text
       xml:space="preserve"
       style="font-size:4px;font-style:normal;font-variant:normal;font-weight:normal;font-stretch:normal;line-height:125%;letter-spacing:0px;word-spacing:0px;fill:#000000;fill-opacity:1;stroke:none;font-family:Liberation Mono;-inkscape-font-specification:Sans"
       x="46.467018"
       y="23.016737"
       id="text5949"
       sodipodi:linespacing="125%"><tspan
         sodipodi:role="line"
         id="tspan5951"></tspan></text>
    <g
       id="g7996"
       transform="translate(7.5145025,0)">
      <g
         style="stroke:#000000;stroke-opacity:1"
         transform="translate(-33.587572,5.9346466)"
         id="g4453">
        <rect
           inkscape:tile-y0="2.9399555"
           inkscape:tile-x0="9.8489876"
           y="3.129359"
           x="78.72876"
           height="5.6821079"
           width="5.6821079"
           id="use3840-4"
           style="fill:none;stroke:#000000;stroke-width:0.5;stroke-miterlimit:4;stroke-opacity:1;stroke-dasharray:none" />
        <use
           style="stroke:#000000;stroke-opacity:1"
           height="1052.3622"
           width="744.09448"
           x="0"
           y="0"
           inkscape:tiled-clone-of="#use3840-4"
           xlink:href="#use3840-4"
           id="use4421" />
        <use
           style="stroke:#000000;stroke-opacity:1"
           height="1052.3622"
           width="744.09448"
           x="0"
           y="0"
           inkscape:tiled-clone-of="#use3840-4"
           xlink:href="#use3840-4"
           transform="translate(0,5.6821079)"
           id="use4423" />
        <use
           style="stroke:#000000;stroke-opacity:1"
           height="1052.3622"
           width="744.09448"
           x="0"
           y="0"
           inkscape:tiled-clone-of="#use3840-4"
           xlink:href="#use3840-4"
           transform="translate(0,11.364216)"
           id="use4425" />
        <use
           style="stroke:#000000;stroke-opacity:1"
           height="1052.3622"
           width="744.09448"
           x="0"
           y="0"
           inkscape:tiled-clone-of="#use3840-4"
           xlink:href="#use3840-4"
           transform="translate(0,17.046324)"
           id="use4427" />
        <use
           style="stroke:#000000;stroke-opacity:1"
           height="1052.3622"
           width="744.09448"
           x="0"
           y="0"
           inkscape:tiled-clone-of="#use3840-4"
           xlink:href="#use3840-4"
           transform="translate(5.6821079,0)"
           id="use4429" />
        <use
           style="stroke:#000000;stroke-opacity:1"
           height="1052.3622"
           width="744.09448"
           x="0"
           y="0"
           inkscape:tiled-clone-of="#use3840-4"
           xlink:href="#use3840-4"
           transform="translate(5.6821079,5.6821079)"
           id="use4431" />
        <use
           style="stroke:#000000;stroke-opacity:1"
           height="1052.3622"
           width="744.09448"
           x="0"
           y="0"
           inkscape:tiled-clone-of="#use3840-4"
           xlink:href="#use3840-4"
           transform="translate(5.6821079,11.364216)"
           id="use4433" />
        <use
           style="stroke:#000000;stroke-opacity:1"
           height="1052.3622"
           width="744.09448"
           x="0"
           y="0"
           inkscape:tiled-clone-of="#use3840-4"
           xlink:href="#use3840-4"
           transform="translate(5.6821079,17.046324)"
           id="use4435" />
        <use
           style="stroke:#000000;stroke-opacity:1"
           height="1052.3622"
           width="744.09448"
           x="0"
           y="0"
           inkscape:tiled-clone-of="#use3840-4"
           xlink:href="#use3840-4"
           transform="translate(11.364216,0)"
           id="use4437" />
        <use
           style="stroke:#000000;stroke-opacity:1"
           height="1052.3622"
           width="744.09448"
           x="0"
           y="0"
           inkscape:tiled-clone-of="#use3840-4"
           xlink:href="#use3840-4"
           transform="translate(11.364216,5.6821079)"
           id="use4439" />
        <use
           style="stroke:#000000;stroke-opacity:1"
           height="1052.3622"
           width="744.09448"
           x="0"
           y="0"
           inkscape:tiled-clone-of="#use3840-4"
           xlink:href="#use3840-4"
           transform="translate(11.364216,11.364216)"
           id="use4441" />
        <use
           style="stroke:#000000;stroke-opacity:1"
           height="1052.3622"
           width="744.09448"
           x="0"
           y="0"
           inkscape:tiled-clone-of="#use3840-4"
           xlink:href="#use3840-4"
           transform="translate(11.364216,17.046324)"
           id="use4443" />
        <use
           style="stroke:#000000;stroke-opacity:1"
           height="1052.3622"
           width="744.09448"
           x="0"
           y="0"
           inkscape:tiled-clone-of="#use3840-4"
           xlink:href="#use3840-4"
           transform="translate(17.046324,0)"
           id="use4445" />
        <use
           style="stroke:#000000;stroke-opacity:1"
           height="1052.3622"
           width="744.09448"
           x="0"
           y="0"
           inkscape:tiled-clone-of="#use3840-4"
           xlink:href="#use3840-4"
           transform="translate(17.046324,5.6821079)"
           id="use4447" />
        <use
           style="stroke:#000000;stroke-opacity:1"
           height="1052.3622"
           width="744.09448"
           x="0"
           y="0"
           inkscape:tiled-clone-of="#use3840-4"
           xlink:href="#use3840-4"
           transform="translate(17.046324,11.364216)"
           id="use4449" />
        <use
           style="stroke:#000000;stroke-opacity:1"
           height="1052.3622"
           width="744.09448"
           x="0"
           y="0"
           inkscape:tiled-clone-of="#use3840-4"
           xlink:href="#use3840-4"
           transform="translate(17.046324,17.046324)"
           id="use4451" />
      </g>
      <path
         inkscape:connector-curvature="0"
         id="path5906"
         d="m 45.413718,11.905146 0,-2.5885159 2.588516,0 2.588516,0 0,2.5885159 0,2.588516 -2.588516,0 -2.588516,0 0,-2.588516 z"
         style="fill:#ff0000;fill-opacity:1;stroke:none" />
      <path
         inkscape:connector-curvature="0"
         id="path5908"
         d="m 56.77907,11.905146 0,-2.5881376 2.58738,0 2.587381,0 0,2.5881376 0,2.588137 -2.587381,0 -2.58738,0 0,-2.588137 z"
         style="fill:#ff0000;fill-opacity:1;stroke:#000000;stroke-width:0.06390017;stroke-miterlimit:4;stroke-opacity:1;stroke-dasharray:none" />
      <path
         inkscape:connector-curvature="0"
         id="path5910"
         d="m 45.414854,23.269362 0,-2.588137 2.587379,0 2.587382,0 0,2.588137 0,2.588137 -2.587382,0 -2.587379,0 0,-2.588137 z"
         style="fill:#ff0000;fill-opacity:1;stroke:#000000;stroke-width:0.06390017;stroke-miterlimit:4;stroke-opacity:1;stroke-dasharray:none" />
      <path
         inkscape:connector-curvature="0"
         id="path5912"
         d="m 56.779076,23.269362 0,-2.588138 2.587375,0 2.587373,0 0,2.588138 0,2.588138 -2.587373,0 -2.587375,0 0,-2.588138 z"
         style="fill:#ff0000;fill-opacity:1;stroke:#000000;stroke-width:0.06390008;stroke-miterlimit:4;stroke-opacity:1;stroke-dasharray:none" />
      <path
         inkscape:connector-curvature="0"
         id="path5914"
         d="m 62.461184,28.95147 0,-2.588138 2.587375,0 2.587373,0 0,2.588138 0,2.588138 -2.587373,0 -2.587375,0 0,-2.588138 z"
         style="fill:#0000ff;fill-opacity:1;stroke:#000000;stroke-width:0.06390008;stroke-miterlimit:4;stroke-opacity:1;stroke-dasharray:none" />
      <path
         inkscape:connector-curvature="0"
         id="path5916"
         d="m 51.096398,28.95147 0,-2.588326 2.556376,0 2.556378,0 0,2.588326 0,2.588326 -2.556378,0 -2.556376,0 0,-2.588326 z"
         style="fill:#0000ff;fill-opacity:1;stroke:#000000;stroke-width:0.06351848;stroke-miterlimit:4;stroke-opacity:1;stroke-dasharray:none" />
      <path
         inkscape:connector-curvature="0"
         id="path5918"
         d="m 51.097253,17.587254 0,-2.588044 2.602872,0 2.602873,0 0,2.588044 0,2.588044 -2.602873,0 -2.602872,0 0,-2.588044 z"
         style="fill:#0000ff;fill-opacity:1;stroke:#000000;stroke-width:0.06409002;stroke-miterlimit:4;stroke-opacity:1;stroke-dasharray:none" />
      <path
         inkscape:connector-curvature="0"
         id="path5920"
         d="m 62.461178,17.587254 0,-2.588137 2.58738,0 2.587381,0 0,2.588137 0,2.588137 -2.587381,0 -2.58738,0 0,-2.588137 z"
         style="fill:#0000ff;fill-opacity:1;stroke:#000000;stroke-width:0.06390017;stroke-miterlimit:4;stroke-opacity:1;stroke-dasharray:none" />
      <path
         inkscape:connector-curvature="0"
         id="path5922"
         d="m 51.09668,11.905146 0,-2.5882318 2.571878,0 2.571879,0 0,2.5882318 0,2.588232 -2.571879,0 -2.571878,0 0,-2.588232 z"
         style="fill:#00ff00;fill-opacity:1;stroke:#000000;stroke-width:0.06370961;stroke-miterlimit:4;stroke-opacity:1;stroke-dasharray:none" />
      <path
         inkscape:connector-curvature="0"
         id="path5924"
         d="m 62.461469,11.905146 0,-2.5880438 2.602873,0 2.602872,0 0,2.5880438 0,2.588044 -2.602872,0 -2.602873,0 0,-2.588044 z"
         style="fill:#00ff00;fill-opacity:1;stroke:#000000;stroke-width:0.06409002;stroke-miterlimit:4;stroke-opacity:1;stroke-dasharray:none" />
      <path
         inkscape:connector-curvature="0"
         id="path5926"
         d="m 56.779076,17.587254 0,-2.588138 2.587375,0 2.587373,0 0,2.588138 0,2.588138 -2.587373,0 -2.587375,0 0,-2.588138 z"
         style="fill:#00ff00;fill-opacity:1;stroke:#000000;stroke-width:0.06390008;stroke-miterlimit:4;stroke-opacity:1;stroke-dasharray:none" />
      <path
         inkscape:connector-curvature="0"
         id="path5928"
         d="m 45.414575,17.587254 0,-2.588232 2.571875,0 2.571876,0 0,2.588232 0,2.588232 -2.571876,0 -2.571875,0 0,-2.588232 z"
         style="fill:#00ff00;fill-opacity:1;stroke:#000000;stroke-width:0.06370957;stroke-miterlimit:4;stroke-opacity:1;stroke-dasharray:none" />
      <path
         inkscape:connector-curvature="0"
         id="path5930"
         d="m 51.096968,23.269362 0,-2.588138 2.587374,0 2.587374,0 0,2.588138 0,2.588138 -2.587374,0 -2.587374,0 0,-2.588138 z"
         style="fill:#00ff00;fill-opacity:1;stroke:#000000;stroke-width:0.06390008;stroke-miterlimit:4;stroke-opacity:1;stroke-dasharray:none" />
      <path
         inkscape:connector-curvature="0"
         id="path5932"
         d="m 62.460899,23.269362 0,-2.588232 2.571876,0 2.571875,0 0,2.588232 0,2.588232 -2.571875,0 -2.571876,0 0,-2.588232 z"
         style="fill:#00ff00;fill-opacity:1;stroke:#000000;stroke-width:0.06370957;stroke-miterlimit:4;stroke-opacity:1;stroke-dasharray:none" />
      <path
         inkscape:connector-curvature="0"
         id="path5934"
         d="m 45.41486,28.95147 0,-2.588138 2.587374,0 2.587374,0 0,2.588138 0,2.588138 -2.587374,0 -2.587374,0 0,-2.588138 z"
         style="fill:#00ff00;fill-opacity:1;stroke:#000000;stroke-width:0.06390008;stroke-miterlimit:4;stroke-opacity:1;stroke-dasharray:none" />
      <path
         inkscape:connector-curvature="0"
         id="path5936"
         d="m 56.779361,28.95147 0,-2.588044 2.602873,0 2.602872,0 0,2.588044 0,2.588044 -2.602872,0 -2.602873,0 0,-2.588044 z"
         style="fill:#00ff00;fill-opacity:1;stroke:#000000;stroke-width:0.06409002;stroke-miterlimit:4;stroke-opacity:1;stroke-dasharray:none" />
      <text
         transform="scale(0.79230948,1.2621331)"
         sodipodi:linespacing="125%"
         id="text5961"
         y="15.858351"
         x="56.965229"
         style="font-size:5.93304825px;font-style:normal;font-variant:normal;font-weight:normal;font-stretch:normal;line-height:125%;letter-spacing:0px;word-spacing:0px;fill:#000000;fill-opacity:1;stroke:none;font-family:Liberation Mono;-inkscape-font-specification:Sans"
         xml:space="preserve"><tspan
           y="15.858351"
           x="56.965229"
           id="tspan5963"
           sodipodi:role="line">G5</tspan></text>
      <text
         transform="scale(0.80123605,1.2480717)"
         sodipodi:linespacing="125%"
         id="text5965"
         y="16.037382"
         x="63.433159"
         style="font-size:5.96262693px;font-style:normal;font-variant:normal;font-weight:normal;font-stretch:normal;line-height:125%;letter-spacing:0px;word-spacing:0px;fill:#ffffff;fill-opacity:1;stroke:none;font-family:Liberation Mono;-inkscape-font-specification:Sans"
         xml:space="preserve"><tspan
           y="16.037382"
           x="63.433159"
           id="tspan5967"
           sodipodi:role="line">B6</tspan></text>
      <text
         transform="scale(0.79119414,1.2639123)"
         sodipodi:linespacing="125%"
         id="text5969"
         y="15.861362"
         x="78.693329"
         style="font-size:5.88789749px;font-style:normal;font-variant:normal;font-weight:normal;font-stretch:normal;line-height:125%;letter-spacing:0px;word-spacing:0px;fill:#ffffff;fill-opacity:1;stroke:none;font-family:Liberation Mono;-inkscape-font-specification:Sans"
         xml:space="preserve"><tspan
           y="15.861362"
           x="78.693329"
           id="tspan5971"
           sodipodi:role="line">B8</tspan></text>
      <text
         transform="scale(0.62431248,1.601762)"
         sodipodi:linespacing="125%"
         id="text5973"
         y="19.631632"
         x="81.639725"
         style="font-size:4.7412262px;font-style:normal;font-variant:normal;font-weight:normal;font-stretch:normal;line-height:125%;letter-spacing:0px;word-spacing:0px;fill:#ffffff;fill-opacity:1;stroke:none;font-family:Liberation Mono;-inkscape-font-specification:Sans"
         xml:space="preserve"><tspan
           y="19.631632"
           x="81.639725"
           id="tspan5975"
           sodipodi:role="line">B14</tspan></text>
      <text
         transform="scale(0.63982556,1.562926)"
         sodipodi:linespacing="125%"
         id="text5977"
         y="20.077446"
         x="97.310005"
         style="font-size:4.7912035px;font-style:normal;font-variant:normal;font-weight:normal;font-stretch:normal;line-height:125%;letter-spacing:0px;word-spacing:0px;fill:#ffffff;fill-opacity:1;stroke:none;font-family:Liberation Mono;-inkscape-font-specification:Sans"
         xml:space="preserve"><tspan
           y="20.077446"
           x="97.310005"
           id="tspan5979"
           sodipodi:role="line">B16</tspan></text>
      <text
         transform="scale(0.79230947,1.2621331)"
         sodipodi:linespacing="125%"
         id="text5961-4"
         y="15.939972"
         x="71.488327"
         style="font-size:5.93304825px;font-style:normal;font-variant:normal;font-weight:normal;font-stretch:normal;line-height:125%;letter-spacing:0px;word-spacing:0px;fill:#000000;fill-opacity:1;stroke:none;font-family:Liberation Mono;-inkscape-font-specification:Sans"
         xml:space="preserve"><tspan
           y="15.939972"
           x="71.488327"
           id="tspan5963-1"
           sodipodi:role="line">G7</tspan></text>
      <text
         transform="scale(0.64021051,1.5619862)"
         sodipodi:linespacing="125%"
         id="text5961-4-0"
         y="16.437479"
         x="79.597343"
         style="font-size:4.73453331px;font-style:normal;font-variant:normal;font-weight:normal;font-stretch:normal;line-height:125%;letter-spacing:0px;word-spacing:0px;fill:#000000;fill-opacity:1;stroke:none;font-family:Liberation Mono;-inkscape-font-specification:Sans"
         xml:space="preserve"><tspan
           y="16.437479"
           x="79.597343"
           id="tspan5963-1-9"
           sodipodi:role="line">G10</tspan></text>
      <text
         transform="scale(0.79230947,1.2621331)"
         sodipodi:linespacing="125%"
         id="text5961-4-1"
         y="11.387963"
         x="64.320358"
         style="font-size:5.93304825px;font-style:normal;font-variant:normal;font-weight:normal;font-stretch:normal;line-height:125%;letter-spacing:0px;word-spacing:0px;fill:#000000;fill-opacity:1;stroke:none;font-family:Liberation Mono;-inkscape-font-specification:Sans"
         xml:space="preserve"><tspan
           y="11.387963"
           x="64.320358"
           id="tspan5963-1-92"
           sodipodi:role="line">G2</tspan></text>
      <text
         transform="scale(0.79230947,1.2621331)"
         sodipodi:linespacing="125%"
         id="text5961-4-6"
         y="11.387962"
         x="78.623672"
         style="font-size:5.93304825px;font-style:normal;font-variant:normal;font-weight:normal;font-stretch:normal;line-height:125%;letter-spacing:0px;word-spacing:0px;fill:#000000;fill-opacity:1;stroke:none;font-family:Liberation Mono;-inkscape-font-specification:Sans"
         xml:space="preserve"><tspan
           y="11.387962"
           x="78.623672"
           id="tspan5963-1-7"
           sodipodi:role="line">G4</tspan></text>
      <text
         transform="scale(0.79230947,1.2621331)"
         sodipodi:linespacing="125%"
         id="text5961-4-8"
         y="11.412973"
         x="71.452087"
         style="font-size:5.93304825px;font-style:normal;font-variant:normal;font-weight:normal;font-stretch:normal;line-height:125%;letter-spacing:0px;word-spacing:0px;fill:#000000;fill-opacity:1;stroke:none;font-family:Liberation Mono;-inkscape-font-specification:Sans"
         xml:space="preserve"><tspan
           y="11.412973"
           x="71.452087"
           id="tspan5963-1-1"
           sodipodi:role="line">R3</tspan></text>
      <text
         transform="scale(0.79230947,1.2621331)"
         sodipodi:linespacing="125%"
         id="text5961-4-9"
         y="11.362951"
         x="57.069099"
         style="font-size:5.93304825px;font-style:normal;font-variant:normal;font-weight:normal;font-stretch:normal;line-height:125%;letter-spacing:0px;word-spacing:0px;fill:#000000;fill-opacity:1;stroke:none;font-family:Liberation Mono;-inkscape-font-specification:Sans"
         xml:space="preserve"><tspan
           y="11.362951"
           x="57.069099"
           id="tspan5963-1-3"
           sodipodi:role="line">R1</tspan></text>
      <text
         transform="scale(0.79230947,1.2621331)"
         sodipodi:linespacing="125%"
         id="text5961-4-63"
         y="20.441961"
         x="57.069099"
         style="font-size:5.93304825px;font-style:normal;font-variant:normal;font-weight:normal;font-stretch:normal;line-height:125%;letter-spacing:0px;word-spacing:0px;fill:#000000;fill-opacity:1;stroke:none;font-family:Liberation Mono;-inkscape-font-specification:Sans"
         xml:space="preserve"><tspan
           y="20.441961"
           x="57.069099"
           id="tspan5963-1-16"
           sodipodi:role="line">R9</tspan></text>
      <text
         transform="scale(0.64021052,1.5619862)"
         sodipodi:linespacing="125%"
         id="text5961-4-0-3"
         y="16.457687"
         x="88.453918"
         style="font-size:4.73453331px;font-style:normal;font-variant:normal;font-weight:normal;font-stretch:normal;line-height:125%;letter-spacing:0px;word-spacing:0px;fill:#000000;fill-opacity:1;stroke:none;font-family:Liberation Mono;-inkscape-font-specification:Sans"
         xml:space="preserve"><tspan
           y="16.457687"
           x="88.453918"
           id="tspan5963-1-9-5"
           sodipodi:role="line">R11</tspan></text>
      <text
         transform="scale(0.64021052,1.5619862)"
         sodipodi:linespacing="125%"
         id="text5961-4-0-5"
         y="16.457689"
         x="97.378601"
         style="font-size:4.73453331px;font-style:normal;font-variant:normal;font-weight:normal;font-stretch:normal;line-height:125%;letter-spacing:0px;word-spacing:0px;fill:#000000;fill-opacity:1;stroke:none;font-family:Liberation Mono;-inkscape-font-specification:Sans"
         xml:space="preserve"><tspan
           y="16.457689"
           x="97.378601"
           id="tspan5963-1-9-9"
           sodipodi:role="line">G12</tspan></text>
      <text
         transform="scale(0.64021052,1.5619862)"
         sodipodi:linespacing="125%"
         id="text5961-4-0-6"
         y="20.115644"
         x="70.65387"
         style="font-size:4.73453331px;font-style:normal;font-variant:normal;font-weight:normal;font-stretch:normal;line-height:125%;letter-spacing:0px;word-spacing:0px;fill:#000000;fill-opacity:1;stroke:none;font-family:Liberation Mono;-inkscape-font-specification:Sans"
         xml:space="preserve"><tspan
           y="20.115644"
           x="70.65387"
           id="tspan5963-1-9-3"
           sodipodi:role="line">G13</tspan></text>
      <text
         transform="scale(0.64021052,1.5619862)"
         sodipodi:linespacing="125%"
         id="text5961-4-0-1"
         y="20.115644"
         x="88.503227"
         style="font-size:4.73453331px;font-style:normal;font-variant:normal;font-weight:normal;font-stretch:normal;line-height:125%;letter-spacing:0px;word-spacing:0px;fill:#000000;fill-opacity:1;stroke:none;font-family:Liberation Mono;-inkscape-font-specification:Sans"
         xml:space="preserve"><tspan
           y="20.115644"
           x="88.503227"
           id="tspan5963-1-9-4"
           sodipodi:role="line">G15</tspan></text>
    </g>
    <g
       id="g7839"
       transform="translate(0,-0.89252)">
      <g
         style="fill:#ff0000"
         transform="translate(-59.73084,45.591337)"
         id="g4453-6">
        <rect
           inkscape:tile-y0="2.9399555"
           inkscape:tile-x0="9.8489876"
           y="3.129359"
           x="78.72876"
           height="5.6821079"
           width="5.6821079"
           id="use3840-4-7"
           style="fill:#ff0000;stroke:#000000;stroke-width:0.5;stroke-miterlimit:4;stroke-opacity:1;stroke-dasharray:none" />
        <use
           style="fill:#ff0000"
           height="1052.3622"
           width="744.09448"
           x="0"
           y="0"
           inkscape:tiled-clone-of="#use3840-4-7"
           xlink:href="#use3840-4-7"
           id="use4421-6" />
        <use
           style="fill:#ff0000"
           height="1052.3622"
           width="744.09448"
           x="0"
           y="0"
           inkscape:tiled-clone-of="#use3840-4-7"
           xlink:href="#use3840-4-7"
           transform="translate(0,5.6821079)"
           id="use4423-7" />
        <use
           style="fill:#ff0000"
           height="1052.3622"
           width="744.09448"
           x="0"
           y="0"
           inkscape:tiled-clone-of="#use3840-4-7"
           xlink:href="#use3840-4-7"
           transform="translate(0,11.364216)"
           id="use4425-4" />
        <use
           style="fill:#ff0000"
           height="1052.3622"
           width="744.09448"
           x="0"
           y="0"
           inkscape:tiled-clone-of="#use3840-4-7"
           xlink:href="#use3840-4-7"
           transform="translate(0,17.046324)"
           id="use4427-0" />
        <use
           style="fill:#ff0000"
           height="1052.3622"
           width="744.09448"
           x="0"
           y="0"
           inkscape:tiled-clone-of="#use3840-4-7"
           xlink:href="#use3840-4-7"
           transform="translate(5.6821079,0)"
           id="use4429-0" />
        <use
           style="fill:#ff0000"
           height="1052.3622"
           width="744.09448"
           x="0"
           y="0"
           inkscape:tiled-clone-of="#use3840-4-7"
           xlink:href="#use3840-4-7"
           transform="translate(5.6821079,5.6821079)"
           id="use4431-3" />
        <use
           style="fill:#ff0000"
           height="1052.3622"
           width="744.09448"
           x="0"
           y="0"
           inkscape:tiled-clone-of="#use3840-4-7"
           xlink:href="#use3840-4-7"
           transform="translate(5.6821079,11.364216)"
           id="use4433-4" />
        <use
           style="fill:#ff0000"
           height="1052.3622"
           width="744.09448"
           x="0"
           y="0"
           inkscape:tiled-clone-of="#use3840-4-7"
           xlink:href="#use3840-4-7"
           transform="translate(5.6821079,17.046324)"
           id="use4435-4" />
        <use
           style="fill:#ff0000"
           height="1052.3622"
           width="744.09448"
           x="0"
           y="0"
           inkscape:tiled-clone-of="#use3840-4-7"
           xlink:href="#use3840-4-7"
           transform="translate(11.364216,0)"
           id="use4437-1" />
        <use
           style="fill:#ff0000"
           height="1052.3622"
           width="744.09448"
           x="0"
           y="0"
           inkscape:tiled-clone-of="#use3840-4-7"
           xlink:href="#use3840-4-7"
           transform="translate(11.364216,5.6821079)"
           id="use4439-6" />
        <use
           style="fill:#ff0000"
           height="1052.3622"
           width="744.09448"
           x="0"
           y="0"
           inkscape:tiled-clone-of="#use3840-4-7"
           xlink:href="#use3840-4-7"
           transform="translate(11.364216,11.364216)"
           id="use4441-9" />
        <use
           style="fill:#ff0000"
           height="1052.3622"
           width="744.09448"
           x="0"
           y="0"
           inkscape:tiled-clone-of="#use3840-4-7"
           xlink:href="#use3840-4-7"
           transform="translate(11.364216,17.046324)"
           id="use4443-0" />
        <use
           style="fill:#ff0000"
           height="1052.3622"
           width="744.09448"
           x="0"
           y="0"
           inkscape:tiled-clone-of="#use3840-4-7"
           xlink:href="#use3840-4-7"
           transform="translate(17.046324,0)"
           id="use4445-5" />
        <use
           style="fill:#ff0000"
           height="1052.3622"
           width="744.09448"
           x="0"
           y="0"
           inkscape:tiled-clone-of="#use3840-4-7"
           xlink:href="#use3840-4-7"
           transform="translate(17.046324,5.6821079)"
           id="use4447-6" />
        <use
           style="fill:#ff0000"
           height="1052.3622"
           width="744.09448"
           x="0"
           y="0"
           inkscape:tiled-clone-of="#use3840-4-7"
           xlink:href="#use3840-4-7"
           transform="translate(17.046324,11.364216)"
           id="use4449-6" />
        <use
           style="fill:#ff0000"
           height="1052.3622"
           width="744.09448"
           x="0"
           y="0"
           inkscape:tiled-clone-of="#use3840-4-7"
           xlink:href="#use3840-4-7"
           transform="translate(17.046324,17.046324)"
           id="use4451-2" />
      </g>
      <text
         transform="scale(0.79230947,1.2621331)"
         sodipodi:linespacing="125%"
         id="text5961-4-9-4"
         y="42.804398"
         x="23.958946"
         style="font-size:5.93304825px;font-style:normal;font-variant:normal;font-weight:normal;font-stretch:normal;line-height:125%;letter-spacing:0px;word-spacing:0px;fill:#000000;fill-opacity:1;stroke:none;font-family:Liberation Mono;-inkscape-font-specification:Sans"
         xml:space="preserve"><tspan
           y="42.804398"
           x="23.958946"
           id="tspan5963-1-3-8"
           sodipodi:role="line">R1</tspan></text>
      <text
         transform="scale(0.79230947,1.2621331)"
         sodipodi:linespacing="125%"
         id="text5961-4-8-8"
         y="42.805847"
         x="38.31554"
         style="font-size:5.93304825px;font-style:normal;font-variant:normal;font-weight:normal;font-stretch:normal;line-height:125%;letter-spacing:0px;word-spacing:0px;fill:#000000;fill-opacity:1;stroke:none;font-family:Liberation Mono;-inkscape-font-specification:Sans"
         xml:space="preserve"><tspan
           y="42.805847"
           x="38.31554"
           id="tspan5963-1-1-3"
           sodipodi:role="line">R3</tspan></text>
      <text
         transform="scale(0.79230947,1.2621331)"
         sodipodi:linespacing="125%"
         id="text5961-4-8-3"
         y="42.735107"
         x="45.640415"
         style="font-size:5.93304825px;font-style:normal;font-variant:normal;font-weight:normal;font-stretch:normal;line-height:125%;letter-spacing:0px;word-spacing:0px;fill:#000000;fill-opacity:1;stroke:none;font-family:Liberation Mono;-inkscape-font-specification:Sans"
         xml:space="preserve"><tspan
           y="42.735107"
           x="45.640415"
           id="tspan5963-1-1-8"
           sodipodi:role="line">R3</tspan></text>
      <text
         transform="scale(0.79230947,1.2621331)"
         sodipodi:linespacing="125%"
         id="text5961-4-63-9"
         y="51.71933"
         x="24.021233"
         style="font-size:5.93304825px;font-style:normal;font-variant:normal;font-weight:normal;font-stretch:normal;line-height:125%;letter-spacing:0px;word-spacing:0px;fill:#000000;fill-opacity:1;stroke:none;font-family:Liberation Mono;-inkscape-font-specification:Sans"
         xml:space="preserve"><tspan
           y="51.71933"
           x="24.021233"
           id="tspan5963-1-16-8"
           sodipodi:role="line">R9</tspan></text>
      <text
         transform="scale(0.79230947,1.2621331)"
         sodipodi:linespacing="125%"
         id="text5961-4-63-4"
         y="56.246811"
         x="24.021233"
         style="font-size:5.93304825px;font-style:normal;font-variant:normal;font-weight:normal;font-stretch:normal;line-height:125%;letter-spacing:0px;word-spacing:0px;fill:#000000;fill-opacity:1;stroke:none;font-family:Liberation Mono;-inkscape-font-specification:Sans"
         xml:space="preserve"><tspan
           y="56.246811"
           x="24.021233"
           id="tspan5963-1-16-4"
           sodipodi:role="line">R9</tspan></text>
      <text
         transform="scale(0.79230947,1.2621331)"
         sodipodi:linespacing="125%"
         id="text5961-4-63-3"
         y="51.72501"
         x="31.111677"
         style="font-size:5.93304825px;font-style:normal;font-variant:normal;font-weight:normal;font-stretch:normal;line-height:125%;letter-spacing:0px;word-spacing:0px;fill:#000000;fill-opacity:1;stroke:none;font-family:Liberation Mono;-inkscape-font-specification:Sans"
         xml:space="preserve"><tspan
           y="51.72501"
           x="31.111677"
           id="tspan5963-1-16-48"
           sodipodi:role="line">R9</tspan></text>
      <text
         transform="scale(0.79230947,1.2621331)"
         sodipodi:linespacing="125%"
         id="text5961-4-63-8"
         y="56.287724"
         x="31.130354"
         style="font-size:5.93304825px;font-style:normal;font-variant:normal;font-weight:normal;font-stretch:normal;line-height:125%;letter-spacing:0px;word-spacing:0px;fill:#000000;fill-opacity:1;stroke:none;font-family:Liberation Mono;-inkscape-font-specification:Sans"
         xml:space="preserve"><tspan
           y="56.287724"
           x="31.130354"
           id="tspan5963-1-16-1"
           sodipodi:role="line">R9</tspan></text>
      <text
         transform="scale(0.64021052,1.5619862)"
         sodipodi:linespacing="125%"
         id="text5961-4-0-3-0"
         y="41.781593"
         x="47.48407"
         style="font-size:4.73453331px;font-style:normal;font-variant:normal;font-weight:normal;font-stretch:normal;line-height:125%;letter-spacing:0px;word-spacing:0px;fill:#000000;fill-opacity:1;stroke:none;font-family:Liberation Mono;-inkscape-font-specification:Sans"
         xml:space="preserve"><tspan
           y="41.781593"
           x="47.48407"
           id="tspan5963-1-9-5-2"
           sodipodi:role="line">R11</tspan></text>
      <text
         transform="scale(0.64021052,1.5619862)"
         sodipodi:linespacing="125%"
         id="text5961-4-0-3-1"
         y="45.461437"
         x="47.612328"
         style="font-size:4.73453331px;font-style:normal;font-variant:normal;font-weight:normal;font-stretch:normal;line-height:125%;letter-spacing:0px;word-spacing:0px;fill:#000000;fill-opacity:1;stroke:none;font-family:Liberation Mono;-inkscape-font-specification:Sans"
         xml:space="preserve"><tspan
           y="45.461437"
           x="47.612328"
           id="tspan5963-1-9-5-0"
           sodipodi:role="line">R11</tspan></text>
      <text
         transform="scale(0.64021052,1.5619862)"
         sodipodi:linespacing="125%"
         id="text5961-4-0-3-6"
         y="45.408867"
         x="56.590412"
         style="font-size:4.73453331px;font-style:normal;font-variant:normal;font-weight:normal;font-stretch:normal;line-height:125%;letter-spacing:0px;word-spacing:0px;fill:#000000;fill-opacity:1;stroke:none;font-family:Liberation Mono;-inkscape-font-specification:Sans"
         xml:space="preserve"><tspan
           y="45.408867"
           x="56.590412"
           id="tspan5963-1-9-5-1"
           sodipodi:role="line">R11</tspan></text>
      <text
         transform="scale(0.64021052,1.5619862)"
         sodipodi:linespacing="125%"
         id="text5961-4-0-3-9"
         y="41.781593"
         x="56.462154"
         style="font-size:4.73453331px;font-style:normal;font-variant:normal;font-weight:normal;font-stretch:normal;line-height:125%;letter-spacing:0px;word-spacing:0px;fill:#000000;fill-opacity:1;stroke:none;font-family:Liberation Mono;-inkscape-font-specification:Sans"
         xml:space="preserve"><tspan
           y="41.781593"
           x="56.462154"
           id="tspan5963-1-9-5-3"
           sodipodi:role="line">R11</tspan></text>
      <text
         transform="scale(0.79230947,1.2621331)"
         sodipodi:linespacing="125%"
         id="text5961-4-9-4-7"
         y="47.24316"
         x="24.020777"
         style="font-size:5.93304825px;font-style:normal;font-variant:normal;font-weight:normal;font-stretch:normal;line-height:125%;letter-spacing:0px;word-spacing:0px;fill:#000000;fill-opacity:1;stroke:none;font-family:Liberation Mono;-inkscape-font-specification:Sans"
         xml:space="preserve"><tspan
           y="47.24316"
           x="24.020777"
           id="tspan5963-1-3-8-4"
           sodipodi:role="line">R1</tspan></text>
      <text
         transform="scale(0.79230947,1.2621331)"
         sodipodi:linespacing="125%"
         id="text5961-4-9-4-2"
         y="47.243164"
         x="31.275343"
         style="font-size:5.93304825px;font-style:normal;font-variant:normal;font-weight:normal;font-stretch:normal;line-height:125%;letter-spacing:0px;word-spacing:0px;fill:#000000;fill-opacity:1;stroke:none;font-family:Liberation Mono;-inkscape-font-specification:Sans"
         xml:space="preserve"><tspan
           y="47.243164"
           x="31.275343"
           id="tspan5963-1-3-8-1"
           sodipodi:role="line">R1</tspan></text>
      <text
         transform="scale(0.79230947,1.2621331)"
         sodipodi:linespacing="125%"
         id="text5961-4-9-4-0"
         y="42.754135"
         x="31.171707"
         style="font-size:5.93304825px;font-style:normal;font-variant:normal;font-weight:normal;font-stretch:normal;line-height:125%;letter-spacing:0px;word-spacing:0px;fill:#000000;fill-opacity:1;stroke:none;font-family:Liberation Mono;-inkscape-font-specification:Sans"
         xml:space="preserve"><tspan
           y="42.754135"
           x="31.171707"
           id="tspan5963-1-3-8-40"
           sodipodi:role="line">R1</tspan></text>
      <text
         transform="scale(0.79230947,1.2621331)"
         sodipodi:linespacing="125%"
         id="text5961-4-8-8-8"
         y="47.24461"
         x="38.263901"
         style="font-size:5.93304825px;font-style:normal;font-variant:normal;font-weight:normal;font-stretch:normal;line-height:125%;letter-spacing:0px;word-spacing:0px;fill:#000000;fill-opacity:1;stroke:none;font-family:Liberation Mono;-inkscape-font-specification:Sans"
         xml:space="preserve"><tspan
           y="47.24461"
           x="38.263901"
           id="tspan5963-1-1-3-6"
           sodipodi:role="line">R3</tspan></text>
      <text
         transform="scale(0.79230947,1.2621331)"
         sodipodi:linespacing="125%"
         id="text5961-4-8-8-9"
         y="47.179554"
         x="45.414833"
         style="font-size:5.93304825px;font-style:normal;font-variant:normal;font-weight:normal;font-stretch:normal;line-height:125%;letter-spacing:0px;word-spacing:0px;fill:#000000;fill-opacity:1;stroke:none;font-family:Liberation Mono;-inkscape-font-specification:Sans"
         xml:space="preserve"><tspan
           y="47.179554"
           x="45.414833"
           id="tspan5963-1-1-3-7"
           sodipodi:role="line">R3</tspan></text>
    </g>
    <g
       id="g7891"
       transform="translate(0,1.325392)">
      <g
         style="fill:#0000ff"
         transform="translate(6.1240544,43.373425)"
         id="g4453-4">
        <rect
           inkscape:tile-y0="2.9399555"
           inkscape:tile-x0="9.8489876"
           y="3.129359"
           x="78.72876"
           height="5.6821079"
           width="5.6821079"
           id="use3840-4-5"
           style="fill:#0000ff;stroke:#000000;stroke-width:0.5;stroke-miterlimit:4;stroke-opacity:1;stroke-dasharray:none" />
        <use
           style="fill:#0000ff"
           height="1052.3622"
           width="744.09448"
           x="0"
           y="0"
           inkscape:tiled-clone-of="#use3840-4-5"
           xlink:href="#use3840-4-5"
           id="use4421-3" />
        <use
           style="fill:#0000ff"
           height="1052.3622"
           width="744.09448"
           x="0"
           y="0"
           inkscape:tiled-clone-of="#use3840-4-5"
           xlink:href="#use3840-4-5"
           transform="translate(0,5.6821079)"
           id="use4423-61" />
        <use
           style="fill:#0000ff"
           height="1052.3622"
           width="744.09448"
           x="0"
           y="0"
           inkscape:tiled-clone-of="#use3840-4-5"
           xlink:href="#use3840-4-5"
           transform="translate(0,11.364216)"
           id="use4425-2" />
        <use
           style="fill:#0000ff"
           height="1052.3622"
           width="744.09448"
           x="0"
           y="0"
           inkscape:tiled-clone-of="#use3840-4-5"
           xlink:href="#use3840-4-5"
           transform="translate(0,17.046324)"
           id="use4427-8" />
        <use
           style="fill:#0000ff"
           height="1052.3622"
           width="744.09448"
           x="0"
           y="0"
           inkscape:tiled-clone-of="#use3840-4-5"
           xlink:href="#use3840-4-5"
           transform="translate(5.6821079,0)"
           id="use4429-8" />
        <use
           style="fill:#0000ff"
           height="1052.3622"
           width="744.09448"
           x="0"
           y="0"
           inkscape:tiled-clone-of="#use3840-4-5"
           xlink:href="#use3840-4-5"
           transform="translate(5.6821079,5.6821079)"
           id="use4431-0" />
        <use
           style="fill:#0000ff"
           height="1052.3622"
           width="744.09448"
           x="0"
           y="0"
           inkscape:tiled-clone-of="#use3840-4-5"
           xlink:href="#use3840-4-5"
           transform="translate(5.6821079,11.364216)"
           id="use4433-6" />
        <use
           style="fill:#0000ff"
           height="1052.3622"
           width="744.09448"
           x="0"
           y="0"
           inkscape:tiled-clone-of="#use3840-4-5"
           xlink:href="#use3840-4-5"
           transform="translate(5.6821079,17.046324)"
           id="use4435-3" />
        <use
           style="fill:#0000ff"
           height="1052.3622"
           width="744.09448"
           x="0"
           y="0"
           inkscape:tiled-clone-of="#use3840-4-5"
           xlink:href="#use3840-4-5"
           transform="translate(11.364216,0)"
           id="use4437-9" />
        <use
           style="fill:#0000ff"
           height="1052.3622"
           width="744.09448"
           x="0"
           y="0"
           inkscape:tiled-clone-of="#use3840-4-5"
           xlink:href="#use3840-4-5"
           transform="translate(11.364216,5.6821079)"
           id="use4439-4" />
        <use
           style="fill:#0000ff"
           height="1052.3622"
           width="744.09448"
           x="0"
           y="0"
           inkscape:tiled-clone-of="#use3840-4-5"
           xlink:href="#use3840-4-5"
           transform="translate(11.364216,11.364216)"
           id="use4441-5" />
        <use
           style="fill:#0000ff"
           height="1052.3622"
           width="744.09448"
           x="0"
           y="0"
           inkscape:tiled-clone-of="#use3840-4-5"
           xlink:href="#use3840-4-5"
           transform="translate(11.364216,17.046324)"
           id="use4443-5" />
        <use
           style="fill:#0000ff"
           height="1052.3622"
           width="744.09448"
           x="0"
           y="0"
           inkscape:tiled-clone-of="#use3840-4-5"
           xlink:href="#use3840-4-5"
           transform="translate(17.046324,0)"
           id="use4445-1" />
        <use
           style="fill:#0000ff"
           height="1052.3622"
           width="744.09448"
           x="0"
           y="0"
           inkscape:tiled-clone-of="#use3840-4-5"
           xlink:href="#use3840-4-5"
           transform="translate(17.046324,5.6821079)"
           id="use4447-5" />
        <use
           style="fill:#0000ff"
           height="1052.3622"
           width="744.09448"
           x="0"
           y="0"
           inkscape:tiled-clone-of="#use3840-4-5"
           xlink:href="#use3840-4-5"
           transform="translate(17.046324,11.364216)"
           id="use4449-3" />
        <use
           style="fill:#0000ff"
           height="1052.3622"
           width="744.09448"
           x="0"
           y="0"
           inkscape:tiled-clone-of="#use3840-4-5"
           xlink:href="#use3840-4-5"
           transform="translate(17.046324,17.046324)"
           id="use4451-23" />
      </g>
      <text
         transform="scale(0.80123602,1.2480717)"
         sodipodi:linespacing="125%"
         id="text5965-0"
         y="41.543213"
         x="105.94931"
         style="font-size:5.96262693px;font-style:normal;font-variant:normal;font-weight:normal;font-stretch:normal;line-height:125%;letter-spacing:0px;word-spacing:0px;fill:#ffffff;fill-opacity:1;stroke:none;font-family:Liberation Mono;-inkscape-font-specification:Sans"
         xml:space="preserve"><tspan
           y="41.543213"
           x="105.94931"
           id="tspan5967-3"
           sodipodi:role="line">B6</tspan></text>
      <text
         transform="scale(0.80123602,1.2480717)"
         sodipodi:linespacing="125%"
         id="text5965-2"
         y="41.543213"
         x="113.19588"
         style="font-size:5.96262693px;font-style:normal;font-variant:normal;font-weight:normal;font-stretch:normal;line-height:125%;letter-spacing:0px;word-spacing:0px;fill:#ffffff;fill-opacity:1;stroke:none;font-family:Liberation Mono;-inkscape-font-specification:Sans"
         xml:space="preserve"><tspan
           y="41.543213"
           x="113.19588"
           id="tspan5967-7"
           sodipodi:role="line">B6</tspan></text>
      <text
         transform="scale(0.80123602,1.2480717)"
         sodipodi:linespacing="125%"
         id="text5965-20"
         y="46.055798"
         x="105.87684"
         style="font-size:5.96262693px;font-style:normal;font-variant:normal;font-weight:normal;font-stretch:normal;line-height:125%;letter-spacing:0px;word-spacing:0px;fill:#ffffff;fill-opacity:1;stroke:none;font-family:Liberation Mono;-inkscape-font-specification:Sans"
         xml:space="preserve"><tspan
           y="46.055798"
           x="105.87684"
           id="tspan5967-8"
           sodipodi:role="line">B6</tspan></text>
      <text
         transform="scale(0.80123602,1.2480717)"
         sodipodi:linespacing="125%"
         id="text5965-24"
         y="46.102322"
         x="113.19588"
         style="font-size:5.96262693px;font-style:normal;font-variant:normal;font-weight:normal;font-stretch:normal;line-height:125%;letter-spacing:0px;word-spacing:0px;fill:#ffffff;fill-opacity:1;stroke:none;font-family:Liberation Mono;-inkscape-font-specification:Sans"
         xml:space="preserve"><tspan
           y="46.102322"
           x="113.19588"
           id="tspan5967-2"
           sodipodi:role="line">B6</tspan></text>
      <text
         transform="scale(0.62431248,1.601762)"
         sodipodi:linespacing="125%"
         id="text5973-5"
         y="39.452122"
         x="136.26695"
         style="font-size:4.7412262px;font-style:normal;font-variant:normal;font-weight:normal;font-stretch:normal;line-height:125%;letter-spacing:0px;word-spacing:0px;fill:#ffffff;fill-opacity:1;stroke:none;font-family:Liberation Mono;-inkscape-font-specification:Sans"
         xml:space="preserve"><tspan
           y="39.452122"
           x="136.26695"
           id="tspan5975-6"
           sodipodi:role="line">B14</tspan></text>
      <text
         transform="scale(0.62431248,1.601762)"
         sodipodi:linespacing="125%"
         id="text5973-1"
         y="39.452122"
         x="145.47365"
         style="font-size:4.7412262px;font-style:normal;font-variant:normal;font-weight:normal;font-stretch:normal;line-height:125%;letter-spacing:0px;word-spacing:0px;fill:#ffffff;fill-opacity:1;stroke:none;font-family:Liberation Mono;-inkscape-font-specification:Sans"
         xml:space="preserve"><tspan
           y="39.452122"
           x="145.47365"
           id="tspan5975-1"
           sodipodi:role="line">B14</tspan></text>
      <text
         transform="scale(0.62431248,1.601762)"
         sodipodi:linespacing="125%"
         id="text5973-6"
         y="42.989319"
         x="136.26695"
         style="font-size:4.7412262px;font-style:normal;font-variant:normal;font-weight:normal;font-stretch:normal;line-height:125%;letter-spacing:0px;word-spacing:0px;fill:#ffffff;fill-opacity:1;stroke:none;font-family:Liberation Mono;-inkscape-font-specification:Sans"
         xml:space="preserve"><tspan
           y="42.989319"
           x="136.26695"
           id="tspan5975-0"
           sodipodi:role="line">B14</tspan></text>
      <text
         transform="scale(0.62431248,1.601762)"
         sodipodi:linespacing="125%"
         id="text5973-0"
         y="42.989319"
         x="145.47366"
         style="font-size:4.7412262px;font-style:normal;font-variant:normal;font-weight:normal;font-stretch:normal;line-height:125%;letter-spacing:0px;word-spacing:0px;fill:#ffffff;fill-opacity:1;stroke:none;font-family:Liberation Mono;-inkscape-font-specification:Sans"
         xml:space="preserve"><tspan
           y="42.989319"
           x="145.47366"
           id="tspan5975-2"
           sodipodi:role="line">B14</tspan></text>
      <text
         transform="scale(0.79119414,1.2639123)"
         sodipodi:linespacing="125%"
         id="text5969-9"
         y="40.929165"
         x="121.69511"
         style="font-size:5.88789749px;font-style:normal;font-variant:normal;font-weight:normal;font-stretch:normal;line-height:125%;letter-spacing:0px;word-spacing:0px;fill:#ffffff;fill-opacity:1;stroke:none;font-family:Liberation Mono;-inkscape-font-specification:Sans"
         xml:space="preserve"><tspan
           y="40.929165"
           x="121.69511"
           id="tspan5971-4"
           sodipodi:role="line">B8</tspan></text>
      <text
         transform="scale(0.79119414,1.2639123)"
         sodipodi:linespacing="125%"
         id="text5969-4"
         y="40.976612"
         x="128.81674"
         style="font-size:5.88789749px;font-style:normal;font-variant:normal;font-weight:normal;font-stretch:normal;line-height:125%;letter-spacing:0px;word-spacing:0px;fill:#ffffff;fill-opacity:1;stroke:none;font-family:Liberation Mono;-inkscape-font-specification:Sans"
         xml:space="preserve"><tspan
           y="40.976612"
           x="128.81674"
           id="tspan5971-0"
           sodipodi:role="line">B8</tspan></text>
      <text
         transform="scale(0.79119414,1.2639123)"
         sodipodi:linespacing="125%"
         id="text5969-6"
         y="45.432644"
         x="121.84512"
         style="font-size:5.88789749px;font-style:normal;font-variant:normal;font-weight:normal;font-stretch:normal;line-height:125%;letter-spacing:0px;word-spacing:0px;fill:#ffffff;fill-opacity:1;stroke:none;font-family:Liberation Mono;-inkscape-font-specification:Sans"
         xml:space="preserve"><tspan
           y="45.432644"
           x="121.84512"
           id="tspan5971-00"
           sodipodi:role="line">B8</tspan></text>
      <text
         transform="scale(0.79119414,1.2639123)"
         sodipodi:linespacing="125%"
         id="text5969-46"
         y="45.432644"
         x="128.89014"
         style="font-size:5.88789749px;font-style:normal;font-variant:normal;font-weight:normal;font-stretch:normal;line-height:125%;letter-spacing:0px;word-spacing:0px;fill:#ffffff;fill-opacity:1;stroke:none;font-family:Liberation Mono;-inkscape-font-specification:Sans"
         xml:space="preserve"><tspan
           y="45.432644"
           x="128.89014"
           id="tspan5971-9"
           sodipodi:role="line">B8</tspan></text>
      <text
         transform="scale(0.63982556,1.562926)"
         sodipodi:linespacing="125%"
         id="text5977-3"
         y="44.068916"
         x="159.54451"
         style="font-size:4.7912035px;font-style:normal;font-variant:normal;font-weight:normal;font-stretch:normal;line-height:125%;letter-spacing:0px;word-spacing:0px;fill:#ffffff;fill-opacity:1;stroke:none;font-family:Liberation Mono;-inkscape-font-specification:Sans"
         xml:space="preserve"><tspan
           y="44.068916"
           x="159.54451"
           id="tspan5979-6"
           sodipodi:role="line">B16</tspan></text>
      <text
         transform="scale(0.63982556,1.562926)"
         sodipodi:linespacing="125%"
         id="text5977-5"
         y="40.465401"
         x="150.65131"
         style="font-size:4.7912035px;font-style:normal;font-variant:normal;font-weight:normal;font-stretch:normal;line-height:125%;letter-spacing:0px;word-spacing:0px;fill:#ffffff;fill-opacity:1;stroke:none;font-family:Liberation Mono;-inkscape-font-specification:Sans"
         xml:space="preserve"><tspan
           y="40.465401"
           x="150.65131"
           id="tspan5979-5"
           sodipodi:role="line">B16</tspan></text>
      <text
         transform="scale(0.63982556,1.562926)"
         sodipodi:linespacing="125%"
         id="text5977-39"
         y="44.031765"
         x="150.46982"
         style="font-size:4.7912035px;font-style:normal;font-variant:normal;font-weight:normal;font-stretch:normal;line-height:125%;letter-spacing:0px;word-spacing:0px;fill:#ffffff;fill-opacity:1;stroke:none;font-family:Liberation Mono;-inkscape-font-specification:Sans"
         xml:space="preserve"><tspan
           y="44.031765"
           x="150.46982"
           id="tspan5979-8"
           sodipodi:role="line">B16</tspan></text>
      <text
         transform="scale(0.63982556,1.562926)"
         sodipodi:linespacing="125%"
         id="text5977-4"
         y="40.391098"
         x="159.54449"
         style="font-size:4.7912035px;font-style:normal;font-variant:normal;font-weight:normal;font-stretch:normal;line-height:125%;letter-spacing:0px;word-spacing:0px;fill:#ffffff;fill-opacity:1;stroke:none;font-family:Liberation Mono;-inkscape-font-specification:Sans"
         xml:space="preserve"><tspan
           y="40.391098"
           x="159.54449"
           id="tspan5979-1"
           sodipodi:role="line">B16</tspan></text>
    </g>
    <g
       id="g7943"
       transform="translate(6.6937494,-1.326259)">
      <g
         style="fill:#00ff00"
         transform="translate(-32.766819,46.025076)"
         id="g4453-9">
        <rect
           inkscape:tile-y0="2.9399555"
           inkscape:tile-x0="9.8489876"
           y="3.129359"
           x="78.72876"
           height="5.6821079"
           width="5.6821079"
           id="use3840-4-8"
           style="fill:#00ff00;stroke:#000000;stroke-width:0.5;stroke-miterlimit:4;stroke-opacity:1;stroke-dasharray:none" />
        <use
           style="fill:#00ff00"
           height="1052.3622"
           width="744.09448"
           x="0"
           y="0"
           inkscape:tiled-clone-of="#use3840-4-8"
           xlink:href="#use3840-4-8"
           id="use4421-2" />
        <use
           style="fill:#00ff00"
           height="1052.3622"
           width="744.09448"
           x="0"
           y="0"
           inkscape:tiled-clone-of="#use3840-4-8"
           xlink:href="#use3840-4-8"
           transform="translate(0,5.6821079)"
           id="use4423-6" />
        <use
           style="fill:#00ff00"
           height="1052.3622"
           width="744.09448"
           x="0"
           y="0"
           inkscape:tiled-clone-of="#use3840-4-8"
           xlink:href="#use3840-4-8"
           transform="translate(0,11.364216)"
           id="use4425-40" />
        <use
           style="fill:#00ff00"
           height="1052.3622"
           width="744.09448"
           x="0"
           y="0"
           inkscape:tiled-clone-of="#use3840-4-8"
           xlink:href="#use3840-4-8"
           transform="translate(0,17.046324)"
           id="use4427-5" />
        <use
           style="fill:#00ff00"
           height="1052.3622"
           width="744.09448"
           x="0"
           y="0"
           inkscape:tiled-clone-of="#use3840-4-8"
           xlink:href="#use3840-4-8"
           transform="translate(5.6821079,0)"
           id="use4429-1" />
        <use
           style="fill:#00ff00"
           height="1052.3622"
           width="744.09448"
           x="0"
           y="0"
           inkscape:tiled-clone-of="#use3840-4-8"
           xlink:href="#use3840-4-8"
           transform="translate(5.6821079,5.6821079)"
           id="use4431-6" />
        <use
           style="fill:#00ff00"
           height="1052.3622"
           width="744.09448"
           x="0"
           y="0"
           inkscape:tiled-clone-of="#use3840-4-8"
           xlink:href="#use3840-4-8"
           transform="translate(5.6821079,11.364216)"
           id="use4433-40" />
        <use
           style="fill:#00ff00"
           height="1052.3622"
           width="744.09448"
           x="0"
           y="0"
           inkscape:tiled-clone-of="#use3840-4-8"
           xlink:href="#use3840-4-8"
           transform="translate(5.6821079,17.046324)"
           id="use4435-7" />
        <use
           style="fill:#00ff00"
           height="1052.3622"
           width="744.09448"
           x="0"
           y="0"
           inkscape:tiled-clone-of="#use3840-4-8"
           xlink:href="#use3840-4-8"
           transform="translate(11.364216,0)"
           id="use4437-3" />
        <use
           style="fill:#00ff00"
           height="1052.3622"
           width="744.09448"
           x="0"
           y="0"
           inkscape:tiled-clone-of="#use3840-4-8"
           xlink:href="#use3840-4-8"
           transform="translate(11.364216,5.6821079)"
           id="use4439-7" />
        <use
           style="fill:#00ff00"
           height="1052.3622"
           width="744.09448"
           x="0"
           y="0"
           inkscape:tiled-clone-of="#use3840-4-8"
           xlink:href="#use3840-4-8"
           transform="translate(11.364216,11.364216)"
           id="use4441-4" />
        <use
           style="fill:#00ff00"
           height="1052.3622"
           width="744.09448"
           x="0"
           y="0"
           inkscape:tiled-clone-of="#use3840-4-8"
           xlink:href="#use3840-4-8"
           transform="translate(11.364216,17.046324)"
           id="use4443-1" />
        <use
           style="fill:#00ff00"
           height="1052.3622"
           width="744.09448"
           x="0"
           y="0"
           inkscape:tiled-clone-of="#use3840-4-8"
           xlink:href="#use3840-4-8"
           transform="translate(17.046324,0)"
           id="use4445-6" />
        <use
           style="fill:#00ff00"
           height="1052.3622"
           width="744.09448"
           x="0"
           y="0"
           inkscape:tiled-clone-of="#use3840-4-8"
           xlink:href="#use3840-4-8"
           transform="translate(17.046324,5.6821079)"
           id="use4447-9" />
        <use
           style="fill:#00ff00"
           height="1052.3622"
           width="744.09448"
           x="0"
           y="0"
           inkscape:tiled-clone-of="#use3840-4-8"
           xlink:href="#use3840-4-8"
           transform="translate(17.046324,11.364216)"
           id="use4449-1" />
        <use
           style="fill:#00ff00"
           height="1052.3622"
           width="744.09448"
           x="0"
           y="0"
           inkscape:tiled-clone-of="#use3840-4-8"
           xlink:href="#use3840-4-8"
           transform="translate(17.046324,17.046324)"
           id="use4451-8" />
      </g>
      <g
         id="g7805">
        <text
           xml:space="preserve"
           style="font-size:5.93304825px;font-style:normal;font-variant:normal;font-weight:normal;font-stretch:normal;line-height:125%;letter-spacing:0px;word-spacing:0px;fill:#000000;fill-opacity:1;stroke:none;font-family:Liberation Mono;-inkscape-font-specification:Sans"
           x="65.157738"
           y="43.157097"
           id="text5961-4-1-2"
           sodipodi:linespacing="125%"
           transform="scale(0.79230947,1.2621331)"><tspan
             sodipodi:role="line"
             id="tspan5963-1-92-8"
             x="65.157738"
             y="43.157097">G2</tspan></text>
        <text
           xml:space="preserve"
           style="font-size:5.93304825px;font-style:normal;font-variant:normal;font-weight:normal;font-stretch:normal;line-height:125%;letter-spacing:0px;word-spacing:0px;fill:#000000;fill-opacity:1;stroke:none;font-family:Liberation Mono;-inkscape-font-specification:Sans"
           x="58.044434"
           y="43.16267"
           id="text5961-4-1-7"
           sodipodi:linespacing="125%"
           transform="scale(0.79230947,1.2621331)"><tspan
             sodipodi:role="line"
             id="tspan5963-1-92-5"
             x="58.044434"
             y="43.16267">G2</tspan></text>
        <text
           xml:space="preserve"
           style="font-size:5.93304825px;font-style:normal;font-variant:normal;font-weight:normal;font-stretch:normal;line-height:125%;letter-spacing:0px;word-spacing:0px;fill:#000000;fill-opacity:1;stroke:none;font-family:Liberation Mono;-inkscape-font-specification:Sans"
           x="72.421638"
           y="43.116669"
           id="text5961-4-6-5"
           sodipodi:linespacing="125%"
           transform="scale(0.79230947,1.2621331)"><tspan
             sodipodi:role="line"
             id="tspan5963-1-7-5"
             x="72.421638"
             y="43.116669">G4</tspan></text>
        <text
           xml:space="preserve"
           style="font-size:5.93304825px;font-style:normal;font-variant:normal;font-weight:normal;font-stretch:normal;line-height:125%;letter-spacing:0px;word-spacing:0px;fill:#000000;fill-opacity:1;stroke:none;font-family:Liberation Mono;-inkscape-font-specification:Sans"
           x="79.603294"
           y="43.116669"
           id="text5961-4-6-7"
           sodipodi:linespacing="125%"
           transform="scale(0.79230947,1.2621331)"><tspan
             sodipodi:role="line"
             id="tspan5963-1-7-6"
             x="79.603294"
             y="43.116669">G4</tspan></text>
        <text
           xml:space="preserve"
           style="font-size:5.93304825px;font-style:normal;font-variant:normal;font-weight:normal;font-stretch:normal;line-height:125%;letter-spacing:0px;word-spacing:0px;fill:#000000;fill-opacity:1;stroke:none;font-family:Liberation Mono;-inkscape-font-specification:Sans"
           x="58.022705"
           y="47.624985"
           id="text5961-6"
           sodipodi:linespacing="125%"
           transform="scale(0.79230947,1.2621331)"><tspan
             sodipodi:role="line"
             id="tspan5963-6"
             x="58.022705"
             y="47.624985">G5</tspan></text>
        <text
           xml:space="preserve"
           style="font-size:5.93304825px;font-style:normal;font-variant:normal;font-weight:normal;font-stretch:normal;line-height:125%;letter-spacing:0px;word-spacing:0px;fill:#000000;fill-opacity:1;stroke:none;font-family:Liberation Mono;-inkscape-font-specification:Sans"
           x="65.204361"
           y="47.624981"
           id="text5961-8"
           sodipodi:linespacing="125%"
           transform="scale(0.79230947,1.2621331)"><tspan
             sodipodi:role="line"
             id="tspan5963-0"
             x="65.204361"
             y="47.624981">G5</tspan></text>
        <text
           xml:space="preserve"
           style="font-size:5.93304825px;font-style:normal;font-variant:normal;font-weight:normal;font-stretch:normal;line-height:125%;letter-spacing:0px;word-spacing:0px;fill:#000000;fill-opacity:1;stroke:none;font-family:Liberation Mono;-inkscape-font-specification:Sans"
           x="72.502754"
           y="47.624981"
           id="text5961-4-2"
           sodipodi:linespacing="125%"
           transform="scale(0.79230947,1.2621331)"><tspan
             sodipodi:role="line"
             id="tspan5963-1-0"
             x="72.502754"
             y="47.624981">G7</tspan></text>
        <text
           xml:space="preserve"
           style="font-size:5.93304825px;font-style:normal;font-variant:normal;font-weight:normal;font-stretch:normal;line-height:125%;letter-spacing:0px;word-spacing:0px;fill:#000000;fill-opacity:1;stroke:none;font-family:Liberation Mono;-inkscape-font-specification:Sans"
           x="79.684402"
           y="47.578979"
           id="text5961-4-3"
           sodipodi:linespacing="125%"
           transform="scale(0.79230947,1.2621331)"><tspan
             sodipodi:role="line"
             id="tspan5963-1-8"
             x="79.684402"
             y="47.578979">G7</tspan></text>
        <text
           xml:space="preserve"
           style="font-size:4.73453331px;font-style:normal;font-variant:normal;font-weight:normal;font-stretch:normal;line-height:125%;letter-spacing:0px;word-spacing:0px;fill:#000000;fill-opacity:1;stroke:none;font-family:Liberation Mono;-inkscape-font-specification:Sans"
           x="71.941734"
           y="45.711372"
           id="text5961-4-0-6-1"
           sodipodi:linespacing="125%"
           transform="scale(0.64021052,1.5619862)"><tspan
             sodipodi:role="line"
             id="tspan5963-1-9-3-6"
             x="71.941734"
             y="45.711372">G13</tspan></text>
        <text
           xml:space="preserve"
           style="font-size:4.73453331px;font-style:normal;font-variant:normal;font-weight:normal;font-stretch:normal;line-height:125%;letter-spacing:0px;word-spacing:0px;fill:#000000;fill-opacity:1;stroke:none;font-family:Liberation Mono;-inkscape-font-specification:Sans"
           x="80.920273"
           y="45.711372"
           id="text5961-4-0-6-1-6"
           sodipodi:linespacing="125%"
           transform="scale(0.64021052,1.5619862)"><tspan
             sodipodi:role="line"
             id="tspan5963-1-9-3-6-8"
             x="80.920273"
             y="45.711372">G13</tspan></text>
        <text
           xml:space="preserve"
           style="font-size:4.73453331px;font-style:normal;font-variant:normal;font-weight:normal;font-stretch:normal;line-height:125%;letter-spacing:0px;word-spacing:0px;fill:#000000;fill-opacity:1;stroke:none;font-family:Liberation Mono;-inkscape-font-specification:Sans"
           x="89.71743"
           y="45.711372"
           id="text5961-4-0-1-2"
           sodipodi:linespacing="125%"
           transform="scale(0.64021052,1.5619862)"><tspan
             sodipodi:role="line"
             id="tspan5963-1-9-4-2"
             x="89.71743"
             y="45.711372">G15</tspan></text>
        <text
           xml:space="preserve"
           style="font-size:4.73453331px;font-style:normal;font-variant:normal;font-weight:normal;font-stretch:normal;line-height:125%;letter-spacing:0px;word-spacing:0px;fill:#000000;fill-opacity:1;stroke:none;font-family:Liberation Mono;-inkscape-font-specification:Sans"
           x="98.60527"
           y="45.674198"
           id="text5961-4-0-1-7"
           sodipodi:linespacing="125%"
           transform="scale(0.64021052,1.5619862)"><tspan
             sodipodi:role="line"
             id="tspan5963-1-9-4-26"
             x="98.60527"
             y="45.674198">G15</tspan></text>
        <text
           xml:space="preserve"
           style="font-size:4.73453331px;font-style:normal;font-variant:normal;font-weight:normal;font-stretch:normal;line-height:125%;letter-spacing:0px;word-spacing:0px;fill:#000000;fill-opacity:1;stroke:none;font-family:Liberation Mono;-inkscape-font-specification:Sans"
           x="98.71331"
           y="42.105686"
           id="text5961-4-0-5-8"
           sodipodi:linespacing="125%"
           transform="scale(0.64021052,1.5619862)"><tspan
             sodipodi:role="line"
             id="tspan5963-1-9-9-4"
             x="98.71331"
             y="42.105686">G12</tspan></text>
        <text
           xml:space="preserve"
           style="font-size:4.73453331px;font-style:normal;font-variant:normal;font-weight:normal;font-stretch:normal;line-height:125%;letter-spacing:0px;word-spacing:0px;fill:#000000;fill-opacity:1;stroke:none;font-family:Liberation Mono;-inkscape-font-specification:Sans"
           x="89.825462"
           y="42.068512"
           id="text5961-4-0-5-6"
           sodipodi:linespacing="125%"
           transform="scale(0.64021052,1.5619862)"
           inkscape:transform-center-y="-0.52255958"><tspan
             sodipodi:role="line"
             id="tspan5963-1-9-9-7"
             x="89.825462"
             y="42.068512">G12</tspan></text>
        <text
           xml:space="preserve"
           style="font-size:4.73453331px;font-style:normal;font-variant:normal;font-weight:normal;font-stretch:normal;line-height:125%;letter-spacing:0px;word-spacing:0px;fill:#000000;fill-opacity:1;stroke:none;font-family:Liberation Mono;-inkscape-font-specification:Sans"
           x="80.824959"
           y="42.068516"
           id="text5961-4-0-0"
           sodipodi:linespacing="125%"
           transform="scale(0.64021052,1.5619862)"><tspan
             sodipodi:role="line"
             id="tspan5963-1-9-1"
             x="80.824959"
             y="42.068516">G10</tspan></text>
        <text
           xml:space="preserve"
           style="font-size:4.73453331px;font-style:normal;font-variant:normal;font-weight:normal;font-stretch:normal;line-height:125%;letter-spacing:0px;word-spacing:0px;fill:#000000;fill-opacity:1;stroke:none;font-family:Liberation Mono;-inkscape-font-specification:Sans"
           x="72.118492"
           y="42.068516"
           id="text5961-4-0-37"
           sodipodi:linespacing="125%"
           transform="scale(0.64021052,1.5619862)"><tspan
             sodipodi:role="line"
             id="tspan5963-1-9-8"
             x="72.118492"
             y="42.068516">G10</tspan></text>
      </g>
    </g>
    <text
       xml:space="preserve"
       style="font-size:4px;font-style:normal;font-variant:normal;font-weight:normal;font-stretch:normal;line-height:125%;letter-spacing:0px;word-spacing:0px;fill:#000000;fill-opacity:1;stroke:none;font-family:Liberation Mono;-inkscape-font-specification:Sans"
       x="17.418653"
       y="12.144084"
       id="text8064"
       sodipodi:linespacing="125%"><tspan
         sodipodi:role="line"
         id="tspan8066"
         x="17.418653"
         y="12.144084">Obraz Źródłowy</tspan></text>
    <text
       xml:space="preserve"
       style="font-size:4px;font-style:normal;font-variant:normal;font-weight:normal;font-stretch:normal;line-height:125%;letter-spacing:0px;word-spacing:0px;fill:#000000;fill-opacity:1;stroke:none;font-family:Liberation Mono;-inkscape-font-specification:Sans"
       x="17.418653"
       y="43.241581"
       id="text8068"
       sodipodi:linespacing="125%"><tspan
         sodipodi:role="line"
         id="tspan8070"
         x="17.418653"
         y="43.241581">Obraz Wynikowy</tspan></text>
  </g>
</svg>
